…
``` r
all_olympics_coordinates %>% 
  group_by(NOC) %>% 
  summarise(Athlete = n()) %>% 
  arrange(desc(Athlete))
```

    ## # A tibble: 196 x 2
    ##    NOC           Athlete
    ##    <chr>           <int>
    ##  1 United States     806
    ##  2 Australia         690
    ##  3 Russia            571
    ##  4 Italy             565
    ##  5 China             540
    ##  6 Canada            496
    ##  7 Germany           490
    ##  8 Great Britain     469
    ##  9 Japan             425
    ## 10 Spain             413
    ## # ... with 186 more rows
